…
herring_data <- readRDS("herring_data.rds")

sex_year_wide <- herring_data |>
  mutate(sex_chr = ifelse(is.na(sex), "NA", as.character(sex))) |> # if there is no sex listed, return "NA", else return the data as a character
  group_by(year, sex_chr) |>
  summarise(n = n(), .groups = "drop") |> # teller antall rader 1,2,4 og NA forekommer
  pivot_wider(names_from = sex_chr, values_from = n, values_fill = 0) # Fyller rader som ellers returnerer NA med 0 slik at man summere over radene senere

show(sex_year_wide)
```

::: {.cell-output .cell-output-stdout}

```
# A tibble: 83 × 5
    year  `NA`   `1`   `2`   `4`
   <dbl> <int> <int> <int> <int>
 1  1935  2516     0     0     0
 2  1936  1932     0     0     0
 3  1937  2181     0     0     0
 4  1938  1255     0     0     0
 5  1939  1331     0     0     0
 6  1940  1384     0     0     0
 7  1941   699     0     0     0
 8  1944    71  2109  2145     0
 9  1945   972  2322  2121     0
10  1946     1  2660  2193     0
# ℹ 73 more rows
```
…
